Regression Analysis
…
cv=cv_df %>% 
  select(starts_with("lm")) %>% 
  pivot_longer(
    starts_with("lm"),
    names_to = "model",
    values_to = "data") %>% 
  mutate(data = map(data,broom::tidy))

cv %>%
  filter(model == "lm_1") %>%
  unnest(data) 

## # A tibble: 1,600 × 6
##    model term           estimate std.error statistic       p.value
##    <chr> <chr>             <dbl>     <dbl>     <dbl>         <dbl>
##  1 lm_1  (Intercept)      1.91       0.286     6.70  0.00000000674
##  2 lm_1  monthDecember   -0.327      0.294    -1.11  0.271        
##  3 lm_1  monthFebruary    0.162      0.285     0.568 0.572        
##  4 lm_1  monthJanuary    -0.341      0.367    -0.930 0.356        
##  5 lm_1  monthJune       -0.455      0.422    -1.08  0.286        
##  6 lm_1  monthMarch       0.0664     0.313     0.212 0.833        
##  7 lm_1  monthMay        -0.0378     0.347    -0.109 0.914        
##  8 lm_1  monthNovember   -0.331      0.280    -1.18  0.241        
##  9 lm_1  monthOctober    -0.554      0.305    -1.82  0.0738       
## 10 lm_1  monthSeptember  -0.452      0.409    -1.10  0.274        
## # … with 1,590 more rows

cv %>%
  filter(model == "lm_2") %>%
  unnest(data) 

## # A tibble: 2,000 × 6
##    model term           estimate std.error statistic  p.value
##    <chr> <chr>             <dbl>     <dbl>     <dbl>    <dbl>
##  1 lm_2  (Intercept)      2.42       0.288     8.41  1.11e-11
##  2 lm_2  monthDecember   -0.574      0.276    -2.08  4.21e- 2
##  3 lm_2  monthFebruary    0.183      0.269     0.681 4.98e- 1
##  4 lm_2  monthJanuary    -0.584      0.348    -1.68  9.89e- 2
##  5 lm_2  monthJune        0.0698     0.439     0.159 8.74e- 1
##  6 lm_2  monthMarch      -0.231      0.298    -0.776 4.41e- 1
##  7 lm_2  monthMay         0.294      0.347     0.849 3.99e- 1
##  8 lm_2  monthNovember   -0.407      0.263    -1.55  1.26e- 1
##  9 lm_2  monthOctober    -0.340      0.288    -1.18  2.42e- 1
## 10 lm_2  monthSeptember  -0.106      0.390    -0.273 7.86e- 1
## # … with 1,990 more rows

cv %>%
  filter(model == "lm_3") %>%
  unnest(data) 

## # A tibble: 1,500 × 6
##    model term           estimate std.error statistic       p.value
##    <chr> <chr>             <dbl>     <dbl>     <dbl>         <dbl>
##  1 lm_3  (Intercept)      1.77       0.264    6.71   0.00000000588
##  2 lm_3  monthDecember   -0.109      0.284   -0.384  0.702        
##  3 lm_3  monthFebruary    0.185      0.271    0.682  0.498        
##  4 lm_3  monthJanuary    -0.225      0.335   -0.672  0.504        
##  5 lm_3  monthJune       -0.382      0.368   -1.04   0.303        
##  6 lm_3  monthMarch       0.132      0.289    0.457  0.649        
##  7 lm_3  monthMay        -0.0251     0.313   -0.0800 0.936        
##  8 lm_3  monthNovember   -0.303      0.273   -1.11   0.271        
##  9 lm_3  monthOctober    -0.523      0.290   -1.80   0.0762       
## 10 lm_3  monthSeptember  -0.306      0.375   -0.815  0.418        
## # … with 1,490 more rows
…
